"V1","V2"
"ARSON","13.5593220338983"
"ASSAULT","22.5435203094778"
"BAD CHECKS","0"
"BRIBERY","0"
"BURGLARY","15.5734047300312"
"DISORDERLY CONDUCT","4"
"DRIVING UNDER THE INFLUENCE","2.06185567010309"
"DRUG/NARCOTIC","35.8430410790926"
"DRUNKENNESS","0.195694716242661"
"EMBEZZLEMENT","5.76923076923077"
"EXTORTION","0"
"FAMILY OFFENSES","9.52380952380952"
"FORGERY/COUNTERFEITING","17.0337738619677"
"FRAUD","8.67469879518072"
"GAMBLING","0"
"KIDNAPPING","4.64135021097046"
"LARCENY/THEFT","37.0557322638639"
"LIQUOR LAWS","9.52380952380952"
"LOITERING","22.680412371134"
"MISSING PERSON","59.3718676912797"
"NON-CRIMINAL","22.2924446997989"
"OTHER OFFENSES","24.0679876044699"
"PORNOGRAPHY/OBSCENE MAT",NA
"PROSTITUTION","54.9534292972058"
"RECOVERED VEHICLE","5.61797752808989"
"ROBBERY","9.48699929725931"
"RUNAWAY","29.3103448275862"
"SECONDARY CODES","0.272727272727273"
"SEX OFFENSES FORCIBLE","20.6703910614525"
"SEX OFFENSES NON FORCIBLE","0"
"STOLEN PROPERTY","1.28865979381443"
"SUICIDE","0"
"SUSPICIOUS OCC","7.7581594435527"
"TREA",NA
"TRESPASS","3"
"VANDALISM","15.313981042654"
"VEHICLE THEFT","44.0528634361233"
"WARRANTS","13.2002885308969"
"WEAPON LAWS","18.9189189189189"
