"","BAYVIEW","CENTRAL","INGLESIDE","MISSION","NORTHERN","PARK","RICHMOND","SOUTHERN","TARAVAL","TENDERLOIN"
"ARSON",393,111,182,145,149,65,103,185,120,60
"ASSAULT",9857,6977,8533,11149,8318,3515,3202,12183,5463,7679
"BAD CHECKS",34,65,32,46,54,15,31,74,36,19
"BRIBERY",56,12,53,66,18,7,8,37,17,15
"BURGLARY",3930,4519,3331,3745,5854,2888,2696,4841,3463,1488
"DISORDERLY CONDUCT",219,494,171,1099,452,271,108,511,162,833
"DRIVING UNDER THE INFLUENCE",179,160,206,357,260,176,319,306,202,103
"DRUG/NARCOTIC",4498,1805,2373,8757,4511,2573,999,9228,1531,17696
"DRUNKENNESS",243,517,190,782,368,374,149,959,259,439
"EMBEZZLEMENT",100,180,78,124,131,50,43,275,94,91
"EXTORTION",13,51,29,26,24,8,23,38,36,8
"FAMILY OFFENSES",73,28,71,142,12,26,23,42,35,39
"FORGERY/COUNTERFEITING",774,1144,977,1281,1292,518,619,2345,1097,562
"FRAUD",866,2344,1213,1970,2055,974,1137,3441,1549,1130
"KIDNAPPING",313,197,348,312,231,94,104,340,191,211
"LARCENY/THEFT",10119,25060,10236,18223,28630,9146,9893,41845,11845,9903
"LIQUOR LAWS",114,141,106,495,124,149,81,385,122,186
"LOITERING",50,70,26,191,193,23,8,429,34,201
"MISSING PERSON",5038,1348,3181,3283,1956,2713,1183,3064,3390,833
"NON-CRIMINAL",6099,10940,6853,12372,10240,5925,5744,19745,6919,7467
"OTHER OFFENSES",17087,8935,13219,19352,12249,6185,5637,21329,8626,13737
"PROSTITUTION",70,778,26,3629,1831,5,24,135,82,904
"RECOVERED VEHICLE",735,178,662,325,273,117,125,326,262,135
"ROBBERY",2715,1999,2788,3629,2640,957,787,3878,1405,2202
"RUNAWAY",265,43,148,298,88,485,94,108,408,9
"SECONDARY CODES",1662,704,1300,1439,999,444,525,1205,983,724
"SEX OFFENSES FORCIBLE",387,394,504,718,435,212,216,819,383,320
"SEX OFFENSES NON FORCIBLE",22,7,22,35,9,6,10,17,15,5
"STOLEN PROPERTY",397,510,347,631,700,175,206,1007,231,336
"SUICIDE",37,60,65,72,67,20,42,59,59,27
"SUSPICIOUS OCC",3906,2842,3167,3808,3270,1656,2191,5065,2996,2513
"TRESPASS",636,904,416,1021,780,290,245,1456,386,1192
"VANDALISM",5356,4469,5374,5294,5404,2613,3180,6550,4869,1616
"VEHICLE THEFT",7219,4210,8960,7148,6291,3963,4117,4725,6142,1006
"WARRANTS",4322,2777,2528,6615,4599,2318,1010,9102,1617,7326
"WEAPON LAWS",1647,487,1130,1329,789,357,327,1128,567,794
